{
  "count": 770,
  "next": "https://ll.thespacedevs.com/2.2.0/launch/?limit=1&lsp__id=121&offset=1",
  "previous": null,
  "results": [
    {
      "id": "b8741d6a-bf47-44eb-b740-f091b5fd3c62",
      "url": "https://ll.thespacedevs.com/2.2.0/launch/b8741d6a-bf47-44eb-b740-f091b5fd3c62/",
      "slug": "falcon-1-falconsat-2",
      "name": "Falcon 1 | FalconSAT-2",
      "status": {
        "id": 4,
        "name": "Launch Failure",
        "abbrev": "Failure",
        "description": "Either the launch vehicle did not reach orbit, or the payload(s) failed to separate."
      },
      "last_updated": "2023-07-08T08:08:29Z",
      "net": "2006-03-24T22:30:00Z",
      "window_end": "2006-03-24T22:30:00Z",
      "window_start": "2006-03-24T22:30:00Z",
      "net_precision": null,
      "probability": null,
      "weather_concerns": null,
      "holdreason": "",
      "failreason": "Engine failure at T+33 seconds",
      "hashtag": null,
      "launch_service_provider": {
        "id": 121,
        "url": "https://ll.thespacedevs.com/2.2.0/agencies/121/",
        "name": "SpaceX",
        "type": "Commercial"
      },
      "rocket": {
        "id": 519,
        "configuration": {
          "id": 133,
          "url": "https://ll.thespacedevs.com/2.2.0/config/launcher/133/",
          "name": "Falcon 1",
          "family": "Falcon",
          "full_name": "Falcon 1",
          "variant": "1"
        }
      },
      "mission": {
        "id": 6458,
        "name": "FalconSAT-2",
        "description": "FalconSAT-2 was a satellite built by students of the United States Air Force Academy. It was intended to have been placed into low Earth orbit to study the effects of plasma on communications with spacecraft, however it failed to reach orbit due to a malfunction of its carrier rocket.It landed in a storage shed on Omelek Island, just a few feet from its own shipping container",
        "launch_designator": null,
        "type": "Technology",
        "orbit": {
          "id": 8,
          "name": "Low Earth Orbit",
          "abbrev": "LEO"
        },
        "agencies": [],
        "info_urls": [],
        "vid_urls": []
      },
      "pad": {
        "id": 107,
        "url": "https://ll.thespacedevs.com/2.2.0/pad/107/",
        "agency_id": null,
        "name": "Omelek Island",
        "description": null,
        "info_url": null,
        "wiki_url": "https://en.wikipedia.org/wiki/Omelek_Island",
        "map_url": "https://www.google.com/maps?q=9.047861,167.743",
        "latitude": "9.047861",
        "longitude": "167.743",
        "location": {
          "id": 142,
          "url": "https://ll.thespacedevs.com/2.2.0/location/142/",
          "name": "Ronald Reagan Ballistic Missile Defense Test Site, Kwajalein Atoll, Marshall Islands",
          "country_code": "MHL",
          "description": "The Ronald Reagan Ballistic Missile Defense Test Site is a missile test range in Marshall Islands. It covers about 750,000 square miles (1,900,000 km2) and includes rocket launch sites at the Kwajalein Atoll (on multiple islands), Wake Island, and Aur Atoll. It primarily functions as a test facility for U.S. missile defense and space research programs.",
          "map_image": "https://thespacedevs-prod.nyc3.digitaloceanspaces.com/media/map_images/location_142_20200803142511.jpg",
          "timezone_name": "Pacific/Tarawa",
          "total_launch_count": 5,
          "total_landing_count": 0
        },
        "country_code": "MHL",
        "map_image": "https://thespacedevs-prod.nyc3.digitaloceanspaces.com/media/map_images/pad_107_20200803143450.jpg",
        "total_launch_count": 5,
        "orbital_launch_attempt_count": 5
      },
      "webcast_live": false,
      "image": "https://thespacedevs-prod.nyc3.digitaloceanspaces.com/media/images/falcon_image_20190222030438.jpeg",
      "infographic": null,
      "program": [],
      "orbital_launch_attempt_count": 4759,
      "location_launch_attempt_count": 1,
      "pad_launch_attempt_count": 1,
      "agency_launch_attempt_count": 1,
      "orbital_launch_attempt_count_year": 9,
      "location_launch_attempt_count_year": 1,
      "pad_launch_attempt_count_year": 1,
      "agency_launch_attempt_count_year": 1,
      "type": "normal"
    }
  ]
}
